<?xml version="1.0" encoding="UTF-8"?>
<svg width="24px" height="24px" viewBox="0 0 24 24" version="1.1" xmlns="http://www.w3.org/2000/svg" xmlns:xlink="http://www.w3.org/1999/xlink">
    <title>Icon/Icon-bridgeBollard</title>
    <defs>
        <polygon id="path-1" points="0 16.892 19.607 16.892 19.607 0 0 0"></polygon>
    </defs>
    <g id="Icon/Icon-bridgeBollard" stroke="none" stroke-width="1" fill="none" fill-rule="evenodd">
        <g id="Group-8" transform="translate(2.000000, 4.000000)">
            <path d="M7.1034,14.892 C7.0534,13.55 6.9634,11.164 6.9184,10.023 L12.1384,6.967 L12.1384,14.892 L7.1034,14.892 Z" id="Fill-1" fill="#002E6D"></path>
            <path d="M6.3534,5.9731 C6.1864,5.7311 5.9574,5.5171 5.6414,5.3931 C5.3044,5.2611 3.2774,4.8851 2.0524,4.6651 L3.6504,1.8371 L12.1384,1.8371 L12.1384,2.5861 L6.3534,5.9731 Z" id="Fill-3" fill="#002E6D"></path>
            <mask id="mask-2" fill="white">
                <use xlink:href="#path-1"></use>
            </mask>
            <g id="Clip-6"></g>
            <polygon id="Fill-5" fill="#002E6D" mask="url(#mask-2)" points="0 16.892 18 16.892 18 14.892 0 14.892"></polygon>
            <polygon id="Fill-7" fill="#002E6D" mask="url(#mask-2)" points="19.6067 0.0005 5.9997 7.9625 5.9997 11.9455 19.6067 3.9835"></polygon>
        </g>
    </g>
</svg>