<?xml version="1.0" encoding="UTF-8"?>
<svg width="24px" height="24px" viewBox="0 0 24 24" version="1.1" xmlns="http://www.w3.org/2000/svg" xmlns:xlink="http://www.w3.org/1999/xlink">
    <title>Icon/Icon-not-equal</title>
    <g id="Icon/Icon-not-equal" stroke="none" stroke-width="1" fill="none" fill-rule="evenodd">
        <polygon id="Fill-1" fill="#002E6D" points="3.2415 17 20.7615 17 20.7615 16 3.2415 16"></polygon>
        <polygon id="Fill-1-Copy-2" fill="#002E6D" transform="translate(12.000000, 12.000000) rotate(-60.000000) translate(-12.000000, -12.000000) " points="2 12.5 22 12.5 22 11.5 2 11.5"></polygon>
        <polygon id="Fill-1-Copy" fill="#002E6D" points="3.2415 8 20.7615 8 20.7615 7 3.2415 7"></polygon>
    </g>
</svg>