<?xml version="1.0" encoding="UTF-8"?>
<svg width="24px" height="24px" viewBox="0 0 24 24" version="1.1" xmlns="http://www.w3.org/2000/svg" xmlns:xlink="http://www.w3.org/1999/xlink">
    <title>Icon/Icon-logout</title>
    <g id="Icon/Icon-logout" stroke="none" stroke-width="1" fill="none" fill-rule="evenodd">
        <path d="M15.4919,21.5075 L6.4839,21.5075 C4.9669,21.5075 3.7319,20.2735 3.7319,18.7555 L3.7319,5.2445 C3.7319,3.7275 4.9669,2.4925 6.4839,2.4925 L15.0419,2.4925 C16.5219,2.4925 18.2439,3.6955 18.2439,5.2445 L18.2439,7.4965 L17.2439,7.4965 L17.2439,5.2445 C17.2439,4.3015 16.0329,3.4925 15.0419,3.4925 L6.4839,3.4925 C5.5179,3.4925 4.7319,4.2785 4.7319,5.2445 L4.7319,18.7555 C4.7319,19.7215 5.5179,20.5075 6.4839,20.5075 L15.4919,20.5075 C16.4579,20.5075 17.2439,19.7215 17.2439,18.7555 L17.2439,16.5045 L18.2439,16.5045 L18.2439,18.7555 C18.2439,20.2735 17.0099,21.5075 15.4919,21.5075" id="Fill-1" fill="#002E6D"></path>
        <polygon id="Fill-4" fill="#002E6D" points="21.5613 11.3215 18.7323 8.4925 18.0253 9.1995 20.3453 11.5205 9.2313 11.5455 9.2333 12.5455 20.3623 12.5205 18.0253 14.8565 18.7323 15.5635 21.5613 12.7355 22.2683 12.0285"></polygon>
    </g>
</svg>