<?xml version="1.0" encoding="UTF-8"?>
<svg width="24px" height="24px" viewBox="0 0 24 24" version="1.1" xmlns="http://www.w3.org/2000/svg" xmlns:xlink="http://www.w3.org/1999/xlink">
    <title>Icon/Icon-drag-hand</title>
    <g id="Icon/Icon-drag-hand" stroke="none" stroke-width="1" fill="none" fill-rule="evenodd">
        <path d="M4.57388121,10.378 C3.90588121,10.931 3.70588121,12.652 4.01188121,13.977 C4.80588121,16.356 5.70688121,17.498 6.17288121,17.963 C6.53888121,18.33 8.72588121,18.935 9.90088121,19.259 C11.2978812,19.646 11.5598812,19.728 11.7278812,19.896 C11.8468812,20.015 12.0098812,20.226 12.2518812,20.793 L19.8638812,17.47 C19.5998812,16.863 19.5038812,16.199 19.5738812,15.489 C19.6918812,14.316 19.4438812,11.962 19.2278812,11.207 C19.1248812,10.844 18.3768812,9.204 15.3998812,3.448 C15.1278812,3.017 14.7818812,2.865 14.2618812,2.982 C14.0588812,3.027 13.5908812,3.131 13.5668812,4.107 L13.9028812,5.114 L12.9808812,5.496 L11.8118812,3.157 C11.4848812,2.858 11.1408812,2.799 10.7048812,2.962 C10.4288812,3.066 10.0578812,3.287 9.95388121,4.003 L10.6358812,5.821 L9.69888121,6.173 L8.99988121,4.309 C8.25488121,3.344 7.69188121,3.418 7.33388121,3.563 C7.13088121,3.644 6.51888121,3.888 6.78288121,5.483 L7.72088121,7.475 L6.81688121,7.902 L5.76188121,5.675 C5.04688121,4.913 4.50588121,5.038 4.10988121,5.236 C3.84988121,5.366 3.77788121,5.512 3.74688121,5.61 C3.68088121,5.816 3.68588121,6.22 4.08588121,6.969 L6.14488121,11.088 L5.26388121,11.56 C4.91588121,10.952 4.70388121,10.591 4.57388121,10.378 L4.57388121,10.378 Z M11.6968812,22.127 L11.5108812,21.633 C11.2018812,20.81 11.0488812,20.63 11.0218812,20.603 C10.9568812,20.589 10.2538812,20.395 9.63388121,20.223 C7.58588121,19.657 5.97788121,19.183 5.46588121,18.67 C4.82088121,18.026 3.87888121,16.736 3.04988121,14.248 C2.67588121,12.636 2.83188121,10.187 4.19588121,9.424 L3.19788121,7.428 C2.74388121,6.579 2.61088121,5.881 2.79388121,5.306 C2.92788121,4.888 3.21988121,4.564 3.66288121,4.342 C4.19488121,4.075 4.93588121,3.918 5.74088121,4.382 C5.85688121,3.325 6.42688121,2.848 6.96188121,2.634 C7.53388121,2.407 8.34088121,2.337 9.19888121,3.067 C9.48788121,2.475 9.95388121,2.176 10.3538812,2.026 C11.1848812,1.716 11.9518812,1.879 12.5738812,2.503 L12.6678812,2.633 L12.8218812,2.941 C13.1368812,2.316 13.6748812,2.088 14.0448812,2.006 C14.9808812,1.798 15.7508812,2.126 16.2678812,2.954 C19.5578812,9.31 20.0808812,10.55 20.1898812,10.933 C20.4568812,11.868 20.6938812,14.342 20.5698812,15.589 C20.4998812,16.287 20.6338812,16.895 20.9788812,17.449 L21.2858812,17.94 L11.6968812,22.127 Z" id="Fill-1" fill="#b4b4b4"></path>
    </g>
</svg>