<?xml version="1.0" encoding="UTF-8"?>
<svg width="24px" height="24px" viewBox="0 0 24 24" version="1.1" xmlns="http://www.w3.org/2000/svg" xmlns:xlink="http://www.w3.org/1999/xlink">
    <title>Icon/Icon-move-leftright</title>
    <g id="Icon/Icon-move-leftright" stroke="none" stroke-width="1" fill="none" fill-rule="evenodd">
        <polygon id="Fill-1" fill="#002E6D" points="17.81615 8.1464 21.20515 11.5354 13.93815 11.5354 13.93815 12.5354 21.20515 12.5354 17.81615 15.9254 18.52315 16.6314 23.11915 12.0354 18.52315 7.4404"></polygon>
        <polygon id="Fill-2" fill="#002E6D" points="0.88085 11.9642 5.47585 16.5602 6.18385 15.8532 2.79485 12.4642 10.06185 12.4642 10.06185 11.4652 2.79485 11.4652 6.18385 8.0752 5.47585 7.3682"></polygon>
        <polygon id="Fill-3" fill="#002E6D" points="11.49985 23 12.49985 23 12.49985 1 11.49985 1"></polygon>
    </g>
</svg>