<?xml version="1.0" encoding="UTF-8"?>
<svg width="24px" height="24px" viewBox="0 0 24 24" version="1.1" xmlns="http://www.w3.org/2000/svg" xmlns:xlink="http://www.w3.org/1999/xlink">
    <title>Icon/Icon-derrick</title>
    <g id="Icon/Icon-derrick" stroke="none" stroke-width="1" fill="none" fill-rule="evenodd">
        <polygon id="Fill-11" fill="#002E6D" transform="translate(12.000000, 4.503786) rotate(-360.000000) translate(-12.000000, -4.503786) " points="2 3.00757217 2 5.99986864 22 6 22 3.02221856 22 3.00767069"></polygon>
        <path d="M13.9678944,22 L9.64045117,22 L9.64045117,20.4835554 C9.64045117,19.2402993 9.90770519,18.1722918 10.4643385,17.2048429 C10.9603455,16.3471596 11.7337008,15.451501 12.8403186,14.5209211 C13.8862712,13.6616144 14.5399295,13.0594852 14.8557035,12.7095262 C15.3373239,12.1144254 15.6073449,11.4988583 15.6073449,10.8293135 C15.6073449,9.87525336 15.3259704,9.12035295 14.7572451,8.59081586 C14.1219518,7.99929761 13.2639646,7.76151122 12.1643912,7.76151122 C10.8626677,7.76151122 9.86738171,8.10770732 9.23532714,8.91850719 C8.47431288,9.8193962 8.22793043,11.0843814 8.36181897,12.7404284 L8.36181897,12.7404284 L4.01746104,12.7404284 C3.87345293,9.9844613 4.62232094,7.83264179 6.18591117,6.26487686 C7.63999995,4.77559311 9.66511237,4 12.2948151,4 C14.6334557,4 16.4819893,4.60612481 17.8663868,5.82689399 C19.2715958,7.00628453 20,8.62516736 20,10.7078765 C20,12.2626802 19.5139063,13.6085554 18.6238084,14.7481078 C18.1937235,15.1926772 17.2947093,16.0028444 15.8230642,17.2160631 C15.1813707,17.7056976 14.7556619,18.1711281 14.4752673,18.6410612 C14.1195256,19.2021755 13.9678944,19.8195207 13.9678944,20.4835554 L13.9678944,20.4835554 L13.9678944,22 Z" id="Path" fill="#002E6D" transform="translate(12.000000, 13.000000) rotate(-180.000000) translate(-12.000000, -13.000000) "></path>
    </g>
</svg>