<?xml version="1.0" encoding="UTF-8"?>
<svg width="24px" height="24px" viewBox="0 0 24 24" version="1.1" xmlns="http://www.w3.org/2000/svg" xmlns:xlink="http://www.w3.org/1999/xlink">
    <title>Icon/Icon-menu</title>
    <g id="Icon/Icon-menu" stroke="none" stroke-width="1" fill="none" fill-rule="evenodd">
        <polygon id="Fill-1" fill="#002E6D" points="3 12.5 21 12.5 21 11.5 3 11.5"></polygon>
        <polygon id="Fill-2" fill="#002E6D" points="3 5 21 5 21 4 3 4"></polygon>
        <polygon id="Fill-3" fill="#002E6D" points="3 20 21 20 21 19 3 19"></polygon>
    </g>
</svg>