<?xml version="1.0" encoding="UTF-8"?>
<svg width="24px" height="24px" viewBox="0 0 24 24" version="1.1" xmlns="http://www.w3.org/2000/svg" xmlns:xlink="http://www.w3.org/1999/xlink">
    <title>Icon/Icon-upload</title>
    <g id="Icon/Icon-upload" stroke="none" stroke-width="1" fill="none" fill-rule="evenodd">
        <polygon id="Fill-1" fill="#002E6D" points="21 14.0816 21 19.5806 3 19.5806 3 14.0816 2 14.0816 2 20.5816 22 20.5816 22 14.0816"></polygon>
        <polygon id="Fill-2" fill="#002E6D" points="12 3.4184 7.404 8.0144 8.111 8.7214 11.501 5.3314 11.501 15.5214 12.5 15.5214 12.5 5.3314 15.889 8.7214 16.596 8.0144"></polygon>
    </g>
</svg>