<?xml version="1.0" encoding="UTF-8"?>
<svg width="24px" height="24px" viewBox="0 0 24 24" version="1.1" xmlns="http://www.w3.org/2000/svg" xmlns:xlink="http://www.w3.org/1999/xlink">
    <title>Icon/Icon-more-fill</title>
    <g id="Icon/Icon-more-fill" stroke="none" stroke-width="1" fill="none" fill-rule="evenodd">
        <g id="Group" transform="translate(2.000000, 9.500000)" fill="#002E6D">
            <path d="M2.5,0 C1.119,0 0,1.119 0,2.5 C0,3.881 1.119,5 2.5,5 C3.881,5 5,3.881 5,2.5 C5,1.119 3.881,0 2.5,0" id="Path"></path>
            <path d="M10,0 C8.619,0 7.5,1.119 7.5,2.5 C7.5,3.881 8.619,5 10,5 C11.381,5 12.5,3.881 12.5,2.5 C12.5,1.119 11.381,0 10,0" id="Path"></path>
            <path d="M17.5,0 C16.119,0 15,1.119 15,2.5 C15,3.881 16.119,5 17.5,5 C18.881,5 20,3.881 20,2.5 C20,1.119 18.881,0 17.5,0" id="Path"></path>
        </g>
    </g>
</svg>