<?xml version="1.0" encoding="UTF-8"?>
<svg width="24px" height="24px" viewBox="0 0 24 24" version="1.1" xmlns="http://www.w3.org/2000/svg" xmlns:xlink="http://www.w3.org/1999/xlink">
    <title>Icon/Icon-more</title>
    <g id="Icon/Icon-more" stroke="none" stroke-width="1" fill="none" fill-rule="evenodd">
        <path d="M4.5,9.5 C3.119,9.5 2,10.619 2,12 C2,13.381 3.119,14.5 4.5,14.5 C5.881,14.5 7,13.381 7,12 C7,10.619 5.881,9.5 4.5,9.5 M4.5,10.5 C5.327,10.5 6,11.173 6,12 C6,12.827 5.327,13.5 4.5,13.5 C3.673,13.5 3,12.827 3,12 C3,11.173 3.673,10.5 4.5,10.5" id="Fill-1" fill="#002E6D"></path>
        <path d="M12,9.5 C10.619,9.5 9.5,10.619 9.5,12 C9.5,13.381 10.619,14.5 12,14.5 C13.381,14.5 14.5,13.381 14.5,12 C14.5,10.619 13.381,9.5 12,9.5 M12,10.5 C12.827,10.5 13.5,11.173 13.5,12 C13.5,12.827 12.827,13.5 12,13.5 C11.173,13.5 10.5,12.827 10.5,12 C10.5,11.173 11.173,10.5 12,10.5" id="Fill-3" fill="#002E6D"></path>
        <path d="M19.5,9.5 C18.119,9.5 17,10.619 17,12 C17,13.381 18.119,14.5 19.5,14.5 C20.881,14.5 22,13.381 22,12 C22,10.619 20.881,9.5 19.5,9.5 M19.5,10.5 C20.327,10.5 21,11.173 21,12 C21,12.827 20.327,13.5 19.5,13.5 C18.673,13.5 18,12.827 18,12 C18,11.173 18.673,10.5 19.5,10.5" id="Fill-5" fill="#002E6D"></path>
    </g>
</svg>