<?xml version="1.0" encoding="UTF-8"?>
<svg width="24px" height="24px" viewBox="0 0 24 24" version="1.1" xmlns="http://www.w3.org/2000/svg" xmlns:xlink="http://www.w3.org/1999/xlink">
    <title>Icon/Icon-mouse-rightclick</title>
    <g id="Icon/Icon-mouse-rightclick" stroke="none" stroke-width="1" fill="none" fill-rule="evenodd">
        <path d="M11.72945,7.32867642 C11.17745,7.32867642 10.72945,7.77667642 10.72945,8.32867642 L10.72945,11.3286764 C10.72945,11.8816764 11.17745,12.3286764 11.72945,12.3286764 C12.28145,12.3286764 12.72945,11.8816764 12.72945,11.3286764 L12.72945,8.32867642 C12.72945,7.77667642 12.28145,7.32867642 11.72945,7.32867642" id="Fill-1" fill="#002E6D"></path>
        <path d="M17.43255,3.13927642 C17.87555,3.13927642 18.09455,3.67927642 17.77555,3.98927642 L16.78655,4.97727642 C16.32155,5.46227642 15.60355,4.74327642 16.08855,4.27927642 L17.07655,3.28927642 C17.16955,3.19527642 17.29755,3.14027642 17.43155,3.14027642 L17.43255,3.13927642 Z" id="Fill-3" fill="#002E6D"></path>
        <path d="M17.12205,6.92147642 C17.07405,6.64947642 17.27405,6.38747642 17.57005,6.33447642 L18.64205,6.14647642 C18.93805,6.09447642 19.21605,6.27147642 19.26405,6.54447642 C19.31205,6.81747642 19.11205,7.07847642 18.81505,7.13147642 L17.74405,7.31947642 C17.44805,7.37147642 17.17005,7.19447642 17.12205,6.92147642" id="Fill-5" fill="#002E6D"></path>
        <path d="M14.59665,1.49567642 C14.85865,1.58567642 14.99065,1.88967642 14.89165,2.17567642 L14.53465,3.20967642 C14.43665,3.49667642 14.14665,3.65467642 13.88465,3.56367642 C13.62265,3.47467642 13.49165,3.17067642 13.58965,2.88467642 L13.94565,1.84967642 C14.04465,1.56267642 14.33465,1.40567642 14.59665,1.49567642" id="Fill-8" fill="#002E6D"></path>
        <path d="M17.72355,9.41367642 C17.72355,9.45267642 17.72955,9.49067642 17.72955,9.52967642 L17.72955,15.5296764 C17.72955,18.8386764 15.03755,21.5296764 11.72955,21.5296764 C8.42055,21.5296764 5.72955,18.8386764 5.72955,15.5296764 L5.72955,8.52967642 C5.72955,5.22167642 8.42055,2.52967642 11.72955,2.52967642 L11.72955,1.52967642 C7.86355,1.52967642 4.72955,4.66367642 4.72955,8.52967642 L4.72955,15.5296764 C4.72955,19.3956764 7.86355,22.5296764 11.72955,22.5296764 C15.59555,22.5296764 18.72955,19.3956764 18.72955,15.5296764 L18.72955,9.52967642 C18.72955,9.49067642 18.72355,9.45267642 18.72355,9.41367642 L17.72355,9.41367642 Z" id="Fill-10" fill="#002E6D"></path>
    </g>
</svg>