<?xml version="1.0" encoding="UTF-8"?>
<svg width="24px" height="24px" viewBox="0 0 24 24" version="1.1" xmlns="http://www.w3.org/2000/svg" xmlns:xlink="http://www.w3.org/1999/xlink">
    <title>Icon/Icon-fog</title>
    <g id="Icon/Icon-fog" stroke="none" stroke-width="1" fill="none" fill-rule="evenodd">
        <path d="M20.7576164,11.1670722 C20.0486164,11.1670722 19.3406164,11.1700722 18.6316164,11.1640722 C18.3326164,11.1610722 17.9276164,10.9330722 17.9276164,10.4750722 C17.9276164,9.94807222 18.3316164,9.68907222 18.6266164,9.68107222 C18.8236164,9.67507222 19.0216164,9.68207222 19.2176164,9.67907222 C19.8446164,9.67007222 20.3416164,9.19407222 20.3656164,8.58307222 C20.3906164,7.94007222 19.9406164,7.43107222 19.2966164,7.37707222 C19.1426164,7.36507222 11.9916164,7.35607222 11.6976164,7.38207222 C11.6956164,7.38207222 11.6946164,7.38307222 11.6936164,7.38307222 C11.6086164,7.38307222 11.5246164,7.37807222 11.4406164,7.37607222 C11.1126164,7.36907222 10.9166164,7.19507222 10.9186164,6.91607222 C10.9196164,6.64007222 11.1186164,6.46407222 11.4456164,6.45807222 C11.6636164,6.45407222 11.8816164,6.45907222 12.0996164,6.45807222 C12.6816164,6.45507222 13.2666164,6.47407222 13.8476164,6.44107222 C14.5036164,6.40407222 14.9766164,5.75507222 14.8546164,5.10907222 C14.7416164,4.51407222 14.2836164,4.15507222 13.6226164,4.15407222 C11.8676164,4.15307222 4.88461636,4.15407222 3.14861636,4.15407222 C3.04661636,4.15407222 2.94361636,4.15707222 2.84161636,4.16907222 C2.13761636,4.24807222 1.67461636,4.95007222 1.87761636,5.63007222 C2.03261636,6.15007222 2.45961636,6.45507222 3.05461636,6.45607222 C4.33661636,6.45907222 5.61761636,6.45507222 6.89861636,6.45907222 C7.22361636,6.45907222 7.42361636,6.64207222 7.42461636,6.91807222 C7.42461636,7.19607222 7.22761636,7.37107222 6.90161636,7.37807222 C6.62661636,7.38307222 6.34961636,7.37007222 6.07561636,7.39507222 C5.64561636,7.43207222 5.33561636,7.66507222 5.15361636,8.05307222 C4.79361636,8.81907222 5.34661636,9.67007222 6.21561636,9.67907222 C7.07861636,9.68807222 10.5836164,9.69207222 11.8486164,9.67307222 C11.9846164,9.67707222 12.1216164,9.67607222 12.2576164,9.67907222 C12.6026164,9.68507222 13.0426164,9.90507222 13.0426164,10.4690722 C13.0426164,10.8900722 12.6096164,11.1640722 12.2656164,11.1660722 C11.7596164,11.1680722 7.92561636,11.1620722 6.51461636,11.1690722 L6.09461636,11.1690722 C6.02861636,11.1700722 5.96161636,11.1720722 5.89561636,11.1790722 C5.31661636,11.2340722 4.87861636,11.6970722 4.85061636,12.2830722 C4.82461636,12.8440722 5.23661636,13.3630722 5.80361636,13.4490722 C6.05961636,13.4870722 6.32261636,13.4700722 6.58361636,13.4790722 C6.77061636,13.4840722 6.91261636,13.5810722 6.97061636,13.7390722 C7.07061636,14.0120722 6.87861636,14.2780722 6.57061636,14.2800722 C5.93861636,14.2850722 5.30561636,14.2750722 4.67361636,14.2840722 C3.92561636,14.2960722 3.40361636,14.9800722 3.57961636,15.7010722 C3.70561636,16.2170722 4.15961636,16.5530722 4.74361636,16.5540722 C6.23561636,16.5560722 7.72761636,16.5550722 9.22061636,16.5550722 L9.22061636,16.5570722 C10.1746164,16.5570722 12.9076164,16.5570722 13.8626164,16.5560722 C14.4116164,16.5560722 14.9606164,16.5530722 15.5096164,16.5560722 C15.8486164,16.5570722 16.1466164,16.4560722 16.3776164,16.2060722 C16.7056164,15.8520722 16.7926164,15.4380722 16.6086164,14.9910722 C16.4226164,14.5380722 16.0636164,14.2970722 15.5746164,14.2860722 C14.9586164,14.2720722 11.2286164,14.2840722 10.6126164,14.2800722 C10.3706164,14.2780722 10.1986164,14.1020722 10.2006164,13.8730722 C10.2036164,13.6530722 10.3666164,13.4920722 10.6006164,13.4820722 C14.8966164,13.4830722 20.8496164,13.4830722 21.1276164,13.4620722 C21.6076164,13.4250722 21.9286164,13.1480722 22.1026164,12.7010722 C22.1246164,12.6460722 22.1476164,12.5910722 22.1706164,12.5350722 L22.1706164,12.1290722 C21.8746164,11.3600722 21.5906164,11.1670722 20.7576164,11.1670722" id="Fill-1" fill="#002E6D"></path>
        <path d="M18.5623164,17.5586722 C18.4243164,17.5546722 9.84631636,17.5466722 9.31031636,17.5566722 C8.67531636,17.5686722 8.23131636,18.2576722 8.38031636,18.9846722 C8.48831636,19.5046722 8.87331636,19.8436722 9.36931636,19.8436722 C10.6353164,19.8456722 13.1693164,19.8456722 13.1693164,19.8466722 C13.9793164,19.8466722 18.0413164,19.8426722 18.5083164,19.8456722 C18.7953164,19.8476722 19.0483164,19.7456722 19.2443164,19.4936722 C19.5223164,19.1366722 19.5963164,18.7186722 19.4403164,18.2696722 C19.2823164,17.8126722 18.9773164,17.5696722 18.5623164,17.5586722" id="Fill-4" fill="#002E6D"></path>
    </g>
</svg>