<?xml version="1.0" encoding="UTF-8"?>
<svg width="24px" height="24px" viewBox="0 0 24 24" version="1.1" xmlns="http://www.w3.org/2000/svg" xmlns:xlink="http://www.w3.org/1999/xlink">
    <title>Icon/Icon-chart-view</title>
    <g id="Icon/Icon-chart-view" stroke="none" stroke-width="1" fill="none" fill-rule="evenodd">
        <path d="M22,2 L22,22 L2,22 L2,7.613 L2.99,7.822 L6.792,8.58 L11.531,5.42 L11.818,5.237 L12.131,5.29 L16.792,6.073 L20.646,3.044 L22,2 Z M21,10.812 L19.249,12.21 L18.807,12.56 L18.363,12.908 L17.836,12.71 L17.336,12.521 L12.335,10.842 L7.118,14.328 L6.667,14.619 L6.244,14.892 L5.773,14.714 L5.273,14.527 L3,13.623 L3,21 L21,21 L21,10.812 Z M21,4.038 L17.41,6.859 L17.063,7.133 L16.626,7.06 L12.033,6.287 L7.346,9.411 L7.002,9.641 L6.596,9.56 L3,8.844 L3,12.547 L5.624,13.59 L6.125,13.779 L6.562,13.497 L12.187,9.737 L17.687,11.586 L18.188,11.773 L18.625,11.428 L21,9.533 L21,4.038 Z" id="Combined-Shape" fill="#002E6D"></path>
    </g>
</svg>