<?xml version="1.0" encoding="UTF-8"?>
<svg width="24px" height="24px" viewBox="0 0 24 24" version="1.1" xmlns="http://www.w3.org/2000/svg" xmlns:xlink="http://www.w3.org/1999/xlink">
    <title>Icon/Icon-split-row</title>
    <g id="Icon/Icon-split-row" stroke="none" stroke-width="1" fill="none" fill-rule="evenodd">
        <path d="M22,2.5 L22,21.5 L2,21.5 L2,2.5 L22,2.5 Z M19,12.5 L5,12.5 C3.897,12.5 3,13.397 3,14.5 L3,14.5 L3,20.5 L21,20.5 L21,14.5 C21,13.397 20.103,12.5 19,12.5 L19,12.5 Z M21,3.5 L3,3.5 L3,12.278 C3.532,11.8 4.228,11.5 5,11.5 L5,11.5 L19,11.5 C19.772,11.5 20.468,11.8 21,12.278 L21,12.278 L21,3.5 Z" id="Combined-Shape" fill="#002E6D"></path>
    </g>
</svg>