<?xml version="1.0" encoding="UTF-8"?>
<svg width="24px" height="24px" viewBox="0 0 24 24" version="1.1" xmlns="http://www.w3.org/2000/svg" xmlns:xlink="http://www.w3.org/1999/xlink">
    <title>Icon/Icon-sort-alpha</title>
    <g id="Icon/Icon-sort-alpha" stroke="none" stroke-width="1" fill="none" fill-rule="evenodd">
        <polygon id="Fill-1" fill="#002E6D" points="16.04685 2.2581 16.04585 20.0511 11.90085 15.9051 11.19285 16.6121 16.54685 21.9651 21.90085 16.6121 21.19285 15.9051 17.04685 20.0511 17.04685 2.2581"></polygon>
        <polygon id="Fill-2" fill="#002E6D" points="2.54685 12.7584 2.54685 13.7584 9.33885 13.7584 2.19285 20.9054 2.54685 21.7584 10.54685 21.7584 10.54685 20.7584 3.75285 20.7584 10.90085 13.6114 10.54685 12.7584"></polygon>
        <path d="M6.09915,2.0349 L2.09915,10.0349 L2.99415,10.4819 L4.35615,7.7579 L8.73815,7.7579 L10.10015,10.4819 L10.99415,10.0349 L6.99415,2.0349 L6.09915,2.0349 Z M6.54615,3.3769 L8.23715,6.7579 L4.85615,6.7579 L6.54615,3.3769 Z" id="Fill-3" fill="#002E6D"></path>
    </g>
</svg>