<?xml version="1.0" encoding="UTF-8"?>
<svg width="24px" height="24px" viewBox="0 0 24 24" version="1.1" xmlns="http://www.w3.org/2000/svg" xmlns:xlink="http://www.w3.org/1999/xlink">
    <title>Icon/Icon-sun</title>
    <g id="Icon/Icon-sun" stroke="none" stroke-width="1" fill="none" fill-rule="evenodd">
        <path d="M12,17.5 C8.968,17.5 6.5,15.033 6.5,12 C6.5,8.967 8.968,6.5 12,6.5 C15.032,6.5 17.5,8.967 17.5,12 C17.5,15.033 15.032,17.5 12,17.5" id="Fill-1" fill="#002E6D"></path>
        <path d="M19.501,20 C19.948,20 20.169,19.46 19.848,19.149 L18.852,18.161 C18.381,17.673 17.696,18.408 18.147,18.861 L19.143,19.849 C19.237,19.945 19.366,19.999 19.501,19.999 L19.501,20 Z" id="Fill-3" fill="#002E6D"></path>
        <path d="M4.498,20 C4.052,20 3.831,19.458 4.152,19.147 L5.146,18.156 C5.604,17.678 6.312,18.412 5.849,18.858 L4.855,19.849 C4.762,19.945 4.633,19.999 4.498,19.999 L4.498,20 Z" id="Fill-5" fill="#002E6D"></path>
        <path d="M19.5059,4 C19.9489,4 20.1679,4.541 19.8489,4.85 L18.8599,5.838 C18.3949,6.324 17.6769,5.605 18.1609,5.14 L19.1499,4.15 C19.2419,4.056 19.3699,4.001 19.5049,4.001 L19.5059,4 Z" id="Fill-7" fill="#002E6D"></path>
        <path d="M4.4951,4 C4.0511,4 3.8321,4.541 4.1511,4.85 L5.1411,5.838 C5.6051,6.324 6.3231,5.605 5.8391,5.14 L4.8511,4.15 C4.7571,4.056 4.6281,4 4.4951,4" id="Fill-9" fill="#002E6D"></path>
        <path d="M1,12 C1,11.723 1.223,11.5 1.5,11.5 L2.5,11.5 C2.777,11.5 3,11.723 3,12 C3,12.277 2.777,12.5 2.5,12.5 L1.5,12.5 C1.223,12.5 1,12.277 1,12" id="Fill-11" fill="#002E6D"></path>
        <path d="M21,12 C21,11.723 21.223,11.5 21.5,11.5 L22.5,11.5 C22.777,11.5 23,11.723 23,12 C23,12.277 22.777,12.5 22.5,12.5 L21.5,12.5 C21.223,12.5 21,12.277 21,12" id="Fill-13" fill="#002E6D"></path>
        <path d="M12,21 C12.277,21 12.5,21.223 12.5,21.5 L12.5,22.5 C12.5,22.777 12.277,23 12,23 C11.723,23 11.5,22.777 11.5,22.5 L11.5,21.5 C11.5,21.223 11.723,21 12,21" id="Fill-15" fill="#002E6D"></path>
        <path d="M12,1 C12.277,1 12.5,1.223 12.5,1.5 L12.5,2.5 C12.5,2.777 12.277,3 12,3 C11.723,3 11.5,2.777 11.5,2.5 L11.5,1.5 C11.5,1.223 11.723,1 12,1" id="Fill-17" fill="#002E6D"></path>
    </g>
</svg>