<?xml version="1.0" encoding="UTF-8"?>
<svg width="24px" height="24px" viewBox="0 0 24 24" version="1.1" xmlns="http://www.w3.org/2000/svg" xmlns:xlink="http://www.w3.org/1999/xlink">
    <title>Icon/Icon-typhoon</title>
    <g id="Icon/Icon-typhoon" stroke="none" stroke-width="1" fill="none" fill-rule="evenodd">
        <path d="M14.0131851,11.965883 C13.9931851,13.153883 13.0191851,14.113883 11.8421851,14.104883 C10.6541851,14.095883 9.69718511,13.100883 9.71518511,11.892883 C9.73318511,10.728883 10.7131851,9.77988297 11.8781851,9.79888297 C13.0721851,9.81688297 14.0331851,10.792883 14.0131851,11.965883 M13.7561851,3.84288297 C11.7241851,3.60988297 9.05418511,3.94688297 7.21618511,5.98988297 C7.37018511,5.72588297 7.54018511,5.46588297 7.72818511,5.21088297 C9.00918511,3.47788297 10.7301851,2.44288297 12.8931851,2.07288297 C12.8201851,2.03588297 12.8011851,2.02088297 12.7791851,2.01688297 C12.7211851,2.00788297 12.6621851,1.99986057 12.6041851,1.99986057 C9.65518511,1.99388297 7.32218511,3.19288297 5.70518511,5.66388297 C4.26418511,7.86588297 4.15518511,10.278883 4.82818511,12.755883 C5.31618511,14.549883 6.36418511,15.939883 7.98118511,16.871883 C8.91918511,17.413883 9.94118511,17.705883 11.0111851,17.839883 C8.87118511,18.067883 6.91718511,17.562883 5.18618511,16.278883 C3.45818511,14.998883 2.42918511,13.267883 2.04818511,11.142883 C2.01518511,11.245883 1.99918511,11.338883 2.00014099,11.431883 C2.01218511,14.319883 3.77318511,19.207883 10.1991851,20.156883 C12.3111851,20.469883 15.1391851,20.029883 16.9791851,17.726883 C16.7971851,18.067883 16.5871851,18.402883 16.3501851,18.729883 C15.0691851,20.495883 13.3311851,21.557883 11.1761851,21.940883 C11.2741851,21.975883 11.3651851,21.999917 11.4551851,21.999917 C14.2031851,22.006883 16.4301851,20.934883 18.0691851,18.720883 C19.5041851,16.780883 19.8421851,14.577883 19.4361851,12.245883 C18.9251851,9.30788297 17.3051851,7.30588297 14.3981851,6.45288297 C13.8861851,6.30388297 13.3481851,6.24188297 12.8221851,6.14088297 C16.2681851,5.52688297 21.0951851,7.76688297 21.9571851,12.818883 C21.9681851,12.800883 21.9841851,12.785883 21.9871851,12.769883 C21.9941851,12.723883 21.9981851,12.675883 21.9991851,12.628883 C22.0531851,9.78588297 18.8581851,4.42888297 13.7561851,3.84288297" id="Fill-1" fill="#002E6D"></path>
    </g>
</svg>