<?xml version="1.0" encoding="UTF-8"?>
<svg width="24px" height="24px" viewBox="0 0 24 24" version="1.1" xmlns="http://www.w3.org/2000/svg" xmlns:xlink="http://www.w3.org/1999/xlink">
    <title>Icon/Icon-lashing</title>
    <g id="Icon/Icon-lashing" stroke="none" stroke-width="1" fill="none" fill-rule="evenodd">
        <polygon id="Fill-1" fill="#002E6D" points="20.813 1.75 14.105 8.506 9.602 1.75 8.417 1.75 8.417 3.277 12.787 9.834 8.64 14.012 3.046 8.417 1.75 8.417 1.75 9.713 7.349 15.312 1.75 20.951 1.75 22.25 3.044 22.25 8.646 16.608 14.286 22.25 16.879 22.25 9.937 15.308 13.825 11.392 21.065 22.25 22.25 22.25 22.25 20.723 15.144 10.063 22.25 2.906 22.25 1.75"></polygon>
        <polygon id="Fill-2" fill="#002E6D" points="9.5657 7.5604 10.3707 7.5604 9.5657 6.3524"></polygon>
        <polygon id="Fill-3" fill="#002E6D" points="11.7032 9.5603 9.5652 9.5603 9.5652 12.0153 11.8232 9.7403"></polygon>
        <polygon id="Fill-4" fill="#002E6D" points="13.711 12.571 12.108 14.185 14.19 14.185 14.19 13.29"></polygon>
        <polygon id="Fill-5" fill="#002E6D" points="14.1905 18.5012 14.1905 16.1852 11.8745 16.1852"></polygon>
        <polygon id="Fill-6" fill="#002E6D" points="2.3333 16.1851 2.3333 19.2991 5.4253 16.1851"></polygon>
        <polygon id="Fill-7" fill="#002E6D" points="16.1906 20.5015 17.3556 21.6665 19.7746 21.6665 16.1906 16.2905"></polygon>
        <polygon id="Fill-8" fill="#002E6D" points="2.3333 14.1844 5.1613 14.1844 2.3333 11.3564"></polygon>
        <polygon id="Fill-9" fill="#002E6D" points="21.6667 9.5603 16.6997 9.5603 16.1907 10.0733 16.1907 10.2813 18.7927 14.1853 21.6667 14.1853"></polygon>
        <polygon id="Fill-10" fill="#002E6D" points="4.6796 21.667 7.5656 21.667 7.5656 18.761"></polygon>
        <polygon id="Fill-11" fill="#002E6D" points="20.1259 16.1848 21.6669 18.4958 21.6669 16.1848"></polygon>
        <polygon id="Fill-12" fill="#002E6D" points="7.5655 11.8758 7.5655 9.5598 5.2495 9.5598"></polygon>
        <polygon id="Fill-13" fill="#002E6D" points="9.5657 21.667 12.6427 21.667 9.5657 18.589"></polygon>
        <polygon id="Fill-14" fill="#002E6D" points="14.1905 7.2815 14.1905 2.3335 10.8915 2.3335"></polygon>
        <polygon id="Fill-15" fill="#002E6D" points="18.6856 7.5603 21.6666 7.5603 21.6666 4.5573"></polygon>
        <polygon id="Fill-16" fill="#002E6D" points="19.1773 2.3337 16.1903 2.3337 16.1903 5.3427"></polygon>
    </g>
</svg>