<?xml version="1.0" encoding="UTF-8"?>
<svg width="24px" height="24px" viewBox="0 0 24 24" version="1.1" xmlns="http://www.w3.org/2000/svg" xmlns:xlink="http://www.w3.org/1999/xlink">
    <title>Icon/Icon-target</title>
    <g id="Icon/Icon-target" stroke="none" stroke-width="1" fill="none" fill-rule="evenodd">
        <path d="M12,7.5 C9.525,7.5 7.5,9.525 7.5,12 C7.5,14.475 9.525,16.5 12,16.5 C14.475,16.5 16.5,14.475 16.5,12 C16.5,9.525 14.475,7.5 12,7.5 Z" id="Path" fill="#002E6D" fill-rule="nonzero"></path>
        <path d="M11.2977516,2.19041885 C11.2977516,1.25142462 12.6992356,1.28225726 12.6992356,2.19041885 L12.6992356,2.19041885 L12.6992356,2.93320534 C17.1503485,3.28357632 20.7157237,6.84614849 21.0660947,11.3000644 L21.0660947,11.3000644 L21.8088811,11.3000644 C22.738065,11.3000644 22.7226487,12.7015484 21.8088811,12.7015484 L21.8088811,12.7015484 L21.0660947,12.7015484 C20.7395489,17.1778881 17.1699693,20.7208395 12.6992356,21.0684075 L12.6992356,21.0684075 L12.6992356,21.811194 C12.6992356,22.7403778 11.2977516,22.7249615 11.2977516,21.811194 L11.2977516,21.811194 L11.2977516,21.0684075 C6.82701786,20.7208395 3.25743827,17.1778881 2.93089251,12.7015484 L2.93089251,12.7015484 L2.18810603,12.7015484 C1.24350585,12.7015484 1.29816373,11.3000644 2.18810603,11.3000644 L2.18810603,11.3000644 L2.93089251,11.3000644 C3.2812635,6.84754998 6.84523715,3.28357632 11.2977516,2.93320534 L11.2977516,2.93320534 Z M12.6992356,4.33468928 L12.6992356,4.99338673 C12.6992356,5.92257058 11.2977516,5.90715425 11.2977516,4.99338673 L11.2977516,4.99338673 L11.2977516,4.33468928 C7.79964771,4.61498606 4.67574002,7.60014685 4.33237645,11.3000644 L4.33237645,11.3000644 L4.9910739,11.3000644 C5.92025775,11.3000644 5.90484143,12.7015484 4.9910739,12.7015484 L4.9910739,12.7015484 L4.33237645,12.7015484 C4.64911182,16.4210867 7.57961473,19.3305674 11.2977516,19.6669235 L11.2977516,19.6669235 L11.2977516,19.0082261 C11.2977516,18.0636259 12.6992356,18.1182838 12.6992356,19.0082261 L12.6992356,19.0082261 L12.6992356,19.6669235 C16.4173724,19.3333704 19.3478754,16.4224882 19.6646107,12.7015484 L19.6646107,12.7015484 L19.0059133,12.7015484 C18.0613131,12.7015484 18.115971,11.3000644 19.0059133,11.3000644 L19.0059133,11.3000644 L19.6646107,11.3000644 C19.3100353,7.61556317 16.3893428,4.67104542 12.6992356,4.33468928 L12.6992356,4.33468928 Z" id="Combined-Shape" fill="#002E6D" fill-rule="nonzero"></path>
    </g>
</svg>