<?xml version="1.0" encoding="UTF-8"?>
<svg width="24px" height="24px" viewBox="0 0 24 24" version="1.1" xmlns="http://www.w3.org/2000/svg" xmlns:xlink="http://www.w3.org/1999/xlink">
    <title>Icon/Icon-greater</title>
    <g id="Icon/Icon-greater" stroke="none" stroke-width="1" fill="none" fill-rule="evenodd">
        <polygon id="Fill-1" fill="#002E6D" points="3.6955 4.3755 3.2865 5.2885 18.2685 11.9995 3.2865 18.7115 3.6955 19.6245 20.7135 11.9995"></polygon>
    </g>
</svg>