<?xml version="1.0" encoding="UTF-8"?>
<svg width="24px" height="24px" viewBox="0 0 24 24" version="1.1" xmlns="http://www.w3.org/2000/svg" xmlns:xlink="http://www.w3.org/1999/xlink">
    <title>Icon/Icon-split-cell 3</title>
    <g id="Icon/Icon-split-cell-3" stroke="none" stroke-width="1" fill="none" fill-rule="evenodd">
        <path d="M21.5,2.5 L21.5,21.5 L2.5,21.5 L2.5,2.53393927 L11.5,2.53393927 L11.5,2.5 L21.5,2.5 Z M20.5,12.5160765 L14.5,12.5160765 C13.397,12.5160765 12.5,13.4114742 12.5,14.5125039 L12.5,14.5125039 L12.5,20.5017863 L20.5,20.5017863 L20.5,12.5160765 Z M11.5,3.53215299 L3.45,3.53215299 L3.45,20.5017863 L11.5,20.5017863 L11.5,3.53215299 Z M20.5,3.53215299 L12.5,3.53215299 L12.5,9.48749606 C12.5,10.5875276 13.397,11.4839235 14.5,11.4839235 L14.5,11.4839235 L20.5,11.4839235 L20.5,3.53215299 Z" id="Combined-Shape" fill="#002E6D"></path>
    </g>
</svg>